Simulation
…
Recast using maps

simulate_n_regressions = function(n_runs = 100, n, beta0 = 2, beta1 = 3) 
  {
  
  rerun(n_runs, sim_regression(n, beta0, beta1)) %>% 
    bind_rows()
  
}

simulate_n_regressions(150, 30, 22, 3)

## # A tibble: 150 x 2
##    beta0_hat beta1_hat
##        <dbl>     <dbl>
##  1      22.5      2.61
##  2      22.6      2.75
##  3      21.8      3.05
##  4      22.0      2.93
##  5      21.7      3.11
##  6      21.9      3.13
##  7      21.9      3.13
##  8      22.3      2.66
##  9      22.1      2.77
## 10      21.9      3.13
## # ... with 140 more rows

map(.x = n_list, ~simulate_n_regressions(n_runs = 100, n = .x, beta0 = 2, beta1 = 3))

## $n_30
## # A tibble: 100 x 2
##    beta0_hat beta1_hat
##        <dbl>     <dbl>
##  1      2.17      3.14
##  2      2.25      2.85
##  3      1.87      3.04
##  4      2.52      2.68
##  5      1.59      3.06
##  6      1.85      2.89
##  7      1.89      3.33
##  8      1.94      2.97
##  9      1.46      3.48
## 10      2.10      2.97
## # ... with 90 more rows
## 
## $n_60
## # A tibble: 100 x 2
##    beta0_hat beta1_hat
##        <dbl>     <dbl>
##  1      2.28      2.98
##  2      2.18      2.89
##  3      1.98      3.19
##  4      2.34      2.87
##  5      2.10      3.03
##  6      1.86      3.18
##  7      2.14      2.87
##  8      2.20      2.95
##  9      2.01      2.86
## 10      1.71      2.89
## # ... with 90 more rows
## 
## $n_120
## # A tibble: 100 x 2
##    beta0_hat beta1_hat
##        <dbl>     <dbl>
##  1      2.08      2.92
##  2      2.09      2.91
##  3      1.94      3.02
##  4      1.97      3.03
##  5      2.06      3.03
##  6      2.06      2.97
##  7      1.99      2.93
##  8      1.82      3.05
##  9      2.02      2.98
## 10      2.01      3.04
## # ... with 90 more rows
## 
## $n_240
## # A tibble: 100 x 2
##    beta0_hat beta1_hat
##        <dbl>     <dbl>
##  1      2.09      2.97
##  2      2.20      2.84
##  3      1.96      3.11
##  4      2.03      2.90
##  5      2.12      2.92
##  6      2.04      3.04
##  7      2.16      2.91
##  8      2.02      2.98
##  9      2.09      3.03
## 10      1.88      3.09
## # ... with 90 more rows
…
Simulate for slope

# change the slope rather than change the sample size
sim_results = 
  tibble(beta1_true = 0:6) %>% 
  mutate(
    # '.x = beta1_true' is the input, and 'simulate_n_regressions()' is the function
    estimate_dfs = map(.x = beta1_true, ~simulate_n_regressions(n_runs = 10000, n = 30, beta1 = .x))
  ) 

sim_results$estimate_dfs

## [[1]]
## # A tibble: 20,000 x 5
##    term        estimate std.error statistic p.value
##    <chr>          <dbl>     <dbl>     <dbl>   <dbl>
##  1 (Intercept)   4.04        1.22    3.32   0.00249
##  2 x             0.217       1.09    0.199  0.843  
##  3 (Intercept)   2.00        1.37    1.46   0.156  
##  4 x             2.91        1.89    1.53   0.136  
##  5 (Intercept)   0.0549      1.14    0.0482 0.962  
##  6 x            -0.616       1.04   -0.591  0.559  
##  7 (Intercept)   1.92        1.19    1.62   0.116  
##  8 x             0.736       1.09    0.673  0.506  
##  9 (Intercept)   2.08        1.18    1.77   0.0885 
## 10 x             0.440       1.16    0.378  0.708  
## # ... with 19,990 more rows
## 
## [[2]]
## # A tibble: 20,000 x 5
##    term        estimate std.error statistic p.value
##    <chr>          <dbl>     <dbl>     <dbl>   <dbl>
##  1 (Intercept)    1.40       1.27     1.11   0.278 
##  2 x              0.394      1.40     0.282  0.780 
##  3 (Intercept)    1.99       1.41     1.41   0.170 
##  4 x             -1.77       1.45    -1.22   0.232 
##  5 (Intercept)    3.08       1.49     2.07   0.0476
##  6 x              0.339      1.30     0.261  0.796 
##  7 (Intercept)    0.928      1.37     0.676  0.505 
##  8 x              2.20       1.28     1.72   0.0964
##  9 (Intercept)    1.66       1.52     1.09   0.285 
## 10 x             -2.13       1.78    -1.20   0.240 
## # ... with 19,990 more rows
## 
## [[3]]
## # A tibble: 20,000 x 5
##    term        estimate std.error statistic p.value
##    <chr>          <dbl>     <dbl>     <dbl>   <dbl>
##  1 (Intercept)    0.581      1.33     0.436  0.666 
##  2 x              2.36       1.24     1.90   0.0683
##  3 (Intercept)    2.95       1.17     2.52   0.0177
##  4 x              0.450      1.41     0.319  0.752 
##  5 (Intercept)    0.955      1.66     0.577  0.569 
##  6 x              3.10       1.46     2.12   0.0431
##  7 (Intercept)    3.56       1.29     2.76   0.0100
##  8 x              0.466      1.26     0.370  0.714 
##  9 (Intercept)    1.19       1.47     0.810  0.425 
## 10 x              0.902      1.90     0.475  0.639 
## # ... with 19,990 more rows
## 
## [[4]]
## # A tibble: 20,000 x 5
##    term        estimate std.error statistic p.value
##    <chr>          <dbl>     <dbl>     <dbl>   <dbl>
##  1 (Intercept)     3.05      1.28      2.39 0.0240 
##  2 x               1.54      1.34      1.14 0.263  
##  3 (Intercept)     3.62      1.38      2.63 0.0138 
##  4 x               4.52      1.34      3.36 0.00225
##  5 (Intercept)     3.75      1.38      2.72 0.0110 
##  6 x               3.76      1.31      2.86 0.00783
##  7 (Intercept)     3.15      1.51      2.08 0.0464 
##  8 x               3.12      1.28      2.44 0.0213 
##  9 (Intercept)     3.77      1.52      2.48 0.0193 
## 10 x               2.29      2.04      1.12 0.273  
## # ... with 19,990 more rows
## 
## [[5]]
## # A tibble: 20,000 x 5
##    term        estimate std.error statistic  p.value
##    <chr>          <dbl>     <dbl>     <dbl>    <dbl>
##  1 (Intercept)    1.60       1.48     1.08  0.289   
##  2 x              4.77       1.80     2.65  0.0130  
##  3 (Intercept)    3.53       1.22     2.90  0.00724 
##  4 x              4.48       1.07     4.17  0.000266
##  5 (Intercept)    0.323      1.33     0.243 0.809   
##  6 x              2.64       1.10     2.39  0.0241  
##  7 (Intercept)    2.33       1.44     1.62  0.116   
##  8 x              4.68       1.35     3.46  0.00177 
##  9 (Intercept)    3.27       1.19     2.74  0.0106  
## 10 x              3.51       1.10     3.20  0.00338 
## # ... with 19,990 more rows
## 
## [[6]]
## # A tibble: 20,000 x 5
##    term        estimate std.error statistic     p.value
##    <chr>          <dbl>     <dbl>     <dbl>       <dbl>
##  1 (Intercept)    2.86      1.07      2.67  0.0124     
##  2 x              7.42      1.12      6.62  0.000000347
##  3 (Intercept)    0.303     1.14      0.265 0.793      
##  4 x              5.01      0.963     5.20  0.0000160  
##  5 (Intercept)    4.54      1.63      2.79  0.00944    
##  6 x              5.30      1.72      3.09  0.00454    
##  7 (Intercept)    0.293     1.13      0.259 0.798      
##  8 x              3.14      1.53      2.06  0.0493     
##  9 (Intercept)    0.932     1.35      0.688 0.497      
## 10 x              4.46      1.53      2.92  0.00680    
## # ... with 19,990 more rows
## 
## [[7]]
## # A tibble: 20,000 x 5
##    term        estimate std.error statistic     p.value
##    <chr>          <dbl>     <dbl>     <dbl>       <dbl>
##  1 (Intercept)    4.12       1.32     3.12  0.00421    
##  2 x              4.61       1.43     3.23  0.00314    
##  3 (Intercept)    0.441      1.07     0.413 0.683      
##  4 x              6.76       1.04     6.50  0.000000476
##  5 (Intercept)    1.86       1.57     1.19  0.244      
##  6 x              7.10       1.74     4.07  0.000344   
##  7 (Intercept)    1.92       1.19     1.61  0.119      
##  8 x              7.80       1.32     5.91  0.00000235 
##  9 (Intercept)   -0.697      1.42    -0.489 0.628      
## 10 x              7.56       1.23     6.13  0.00000128 
## # ... with 19,990 more rows
…
